Bellabeats Market Research Report
…
# Import data from csv to data frames

activity_daily <- read.csv(file = "dailyActivity_merged.csv", header = TRUE, sep = ",")
heartrate_seconds <- read.csv(file = "heartrate_seconds_merged.csv", header = TRUE, sep = ",")
mets_minute <- read.csv(file = "minuteMETsNarrow_merged.csv", header = TRUE, sep = ",")
sleep_daily <- read.csv(file = "sleepDay_merged.csv", header = TRUE, sep = ",")
sleep_minute <- read.csv(file = "minuteSleep_merged.csv", header = TRUE, sep = ",")

The focus was on daily data with the exception of sleep data, heart rate and METs. Viewing the data to ensure that the data has successfully imported.

# View Data to ensure import was successful. The focus will be on the daily data with the exception of the heart rate and sleep data.
tibble(activity_daily)

## # A tibble: 940 x 15
##        Id ActivityDate TotalSteps TotalDistance TrackerDistance LoggedActivitie~
##     <dbl> <chr>             <int>         <dbl>           <dbl>            <dbl>
##  1 1.50e9 4/12/2016         13162          8.5             8.5                 0
##  2 1.50e9 4/13/2016         10735          6.97            6.97                0
##  3 1.50e9 4/14/2016         10460          6.74            6.74                0
##  4 1.50e9 4/15/2016          9762          6.28            6.28                0
##  5 1.50e9 4/16/2016         12669          8.16            8.16                0
##  6 1.50e9 4/17/2016          9705          6.48            6.48                0
##  7 1.50e9 4/18/2016         13019          8.59            8.59                0
##  8 1.50e9 4/19/2016         15506          9.88            9.88                0
##  9 1.50e9 4/20/2016         10544          6.68            6.68                0
## 10 1.50e9 4/21/2016          9819          6.34            6.34                0
## # ... with 930 more rows, and 9 more variables: VeryActiveDistance <dbl>,
## #   ModeratelyActiveDistance <dbl>, LightActiveDistance <dbl>,
## #   SedentaryActiveDistance <dbl>, VeryActiveMinutes <int>,
## #   FairlyActiveMinutes <int>, LightlyActiveMinutes <int>,
## #   SedentaryMinutes <int>, Calories <int>

tibble(heartrate_seconds)

## # A tibble: 2,483,658 x 3
##            Id Time                 Value
##         <dbl> <chr>                <int>
##  1 2022484408 4/12/2016 7:21:00 AM    97
##  2 2022484408 4/12/2016 7:21:05 AM   102
##  3 2022484408 4/12/2016 7:21:10 AM   105
##  4 2022484408 4/12/2016 7:21:20 AM   103
##  5 2022484408 4/12/2016 7:21:25 AM   101
##  6 2022484408 4/12/2016 7:22:05 AM    95
##  7 2022484408 4/12/2016 7:22:10 AM    91
##  8 2022484408 4/12/2016 7:22:15 AM    93
##  9 2022484408 4/12/2016 7:22:20 AM    94
## 10 2022484408 4/12/2016 7:22:25 AM    93
## # ... with 2,483,648 more rows

tibble(mets_minute)

## # A tibble: 1,325,580 x 3
##            Id ActivityMinute         METs
##         <dbl> <chr>                 <int>
##  1 1503960366 4/12/2016 12:00:00 AM    10
##  2 1503960366 4/12/2016 12:01:00 AM    10
##  3 1503960366 4/12/2016 12:02:00 AM    10
##  4 1503960366 4/12/2016 12:03:00 AM    10
##  5 1503960366 4/12/2016 12:04:00 AM    10
##  6 1503960366 4/12/2016 12:05:00 AM    12
##  7 1503960366 4/12/2016 12:06:00 AM    12
##  8 1503960366 4/12/2016 12:07:00 AM    12
##  9 1503960366 4/12/2016 12:08:00 AM    12
## 10 1503960366 4/12/2016 12:09:00 AM    12
## # ... with 1,325,570 more rows

tibble(sleep_daily)

## # A tibble: 413 x 5
##            Id SleepDay         TotalSleepRecor~ TotalMinutesAsle~ TotalTimeInBed
##         <dbl> <chr>                       <int>             <int>          <int>
##  1 1503960366 4/12/2016 12:00~                1               327            346
##  2 1503960366 4/13/2016 12:00~                2               384            407
##  3 1503960366 4/15/2016 12:00~                1               412            442
##  4 1503960366 4/16/2016 12:00~                2               340            367
##  5 1503960366 4/17/2016 12:00~                1               700            712
##  6 1503960366 4/19/2016 12:00~                1               304            320
##  7 1503960366 4/20/2016 12:00~                1               360            377
##  8 1503960366 4/21/2016 12:00~                1               325            364
##  9 1503960366 4/23/2016 12:00~                1               361            384
## 10 1503960366 4/24/2016 12:00~                1               430            449
## # ... with 403 more rows

tibble(sleep_minute)

## # A tibble: 188,521 x 4
##            Id date                 value       logId
##         <dbl> <chr>                <int>       <dbl>
##  1 1503960366 4/12/2016 2:47:30 AM     3 11380564589
##  2 1503960366 4/12/2016 2:48:30 AM     2 11380564589
##  3 1503960366 4/12/2016 2:49:30 AM     1 11380564589
##  4 1503960366 4/12/2016 2:50:30 AM     1 11380564589
##  5 1503960366 4/12/2016 2:51:30 AM     1 11380564589
##  6 1503960366 4/12/2016 2:52:30 AM     1 11380564589
##  7 1503960366 4/12/2016 2:53:30 AM     1 11380564589
##  8 1503960366 4/12/2016 2:54:30 AM     2 11380564589
##  9 1503960366 4/12/2016 2:55:30 AM     2 11380564589
## 10 1503960366 4/12/2016 2:56:30 AM     2 11380564589
## # ... with 188,511 more rows
…
The next step was to convert the character format for date and time to date formats as the focus was on daily data.

# To be able to plot the data the date formats of all the dataframes needs to be changed

# Date is changed for the two dataframes below

activity_daily_cln_v2[[2]] <- as.Date(activity_daily_cln[[2]], "%m/%d/%Y")
tibble(activity_daily_cln_v2)

## # A tibble: 940 x 15
##            id date       total_steps total_distance tracker_distance
##         <dbl> <date>           <int>          <dbl>            <dbl>
##  1 1503960366 2016-04-12       13162           8.5              8.5 
##  2 1503960366 2016-04-13       10735           6.97             6.97
##  3 1503960366 2016-04-14       10460           6.74             6.74
##  4 1503960366 2016-04-15        9762           6.28             6.28
##  5 1503960366 2016-04-16       12669           8.16             8.16
##  6 1503960366 2016-04-17        9705           6.48             6.48
##  7 1503960366 2016-04-18       13019           8.59             8.59
##  8 1503960366 2016-04-19       15506           9.88             9.88
##  9 1503960366 2016-04-20       10544           6.68             6.68
## 10 1503960366 2016-04-21        9819           6.34             6.34
## # ... with 930 more rows, and 10 more variables:
## #   logged_activities_distance <dbl>, very_active_distance <dbl>,
## #   moderately_active_distance <dbl>, light_active_distance <dbl>,
## #   sedentary_active_distance <dbl>, very_active_minutes <int>,
## #   fairly_active_minutes <int>, lightly_active_minutes <int>,
## #   sedentary_minutes <int>, calories <int>

sleep_daily_cln_v2[[2]] <- as.Date(sleep_daily_cln[[2]], "%m/%d/%Y")
tibble(sleep_daily_cln_v2)

## # A tibble: 413 x 5
##            id date       total_sleep_records total_minutes_asl~ total_time_in_b~
##         <dbl> <date>                   <int>              <int>            <int>
##  1 1503960366 2016-04-12                   1                327              346
##  2 1503960366 2016-04-13                   2                384              407
##  3 1503960366 2016-04-15                   1                412              442
##  4 1503960366 2016-04-16                   2                340              367
##  5 1503960366 2016-04-17                   1                700              712
##  6 1503960366 2016-04-19                   1                304              320
##  7 1503960366 2016-04-20                   1                360              377
##  8 1503960366 2016-04-21                   1                325              364
##  9 1503960366 2016-04-23                   1                361              384
## 10 1503960366 2016-04-24                   1                430              449
## # ... with 403 more rows

# The dataframes below needs datetime format

heartrate_seconds_cln_v2[[2]] <- as.POSIXct(heartrate_seconds_cln[[2]], format = "%m/%d/%Y %H:%M:%S %p")
tibble(heartrate_seconds_cln_v2)

## # A tibble: 2,483,658 x 3
##            id date_time           value
##         <dbl> <dttm>              <int>
##  1 2022484408 2016-04-12 07:21:00    97
##  2 2022484408 2016-04-12 07:21:05   102
##  3 2022484408 2016-04-12 07:21:10   105
##  4 2022484408 2016-04-12 07:21:20   103
##  5 2022484408 2016-04-12 07:21:25   101
##  6 2022484408 2016-04-12 07:22:05    95
##  7 2022484408 2016-04-12 07:22:10    91
##  8 2022484408 2016-04-12 07:22:15    93
##  9 2022484408 2016-04-12 07:22:20    94
## 10 2022484408 2016-04-12 07:22:25    93
## # ... with 2,483,648 more rows

mets_minute_cln_v2[[2]] <- as.POSIXct(mets_minute_cln[[2]], format = "%m/%d/%Y %H:%M:%S %p")
tibble(mets_minute_cln_v2)

## # A tibble: 1,325,580 x 3
##            id date_time            mets
##         <dbl> <dttm>              <int>
##  1 1503960366 2016-04-12 12:00:00    10
##  2 1503960366 2016-04-12 12:01:00    10
##  3 1503960366 2016-04-12 12:02:00    10
##  4 1503960366 2016-04-12 12:03:00    10
##  5 1503960366 2016-04-12 12:04:00    10
##  6 1503960366 2016-04-12 12:05:00    12
##  7 1503960366 2016-04-12 12:06:00    12
##  8 1503960366 2016-04-12 12:07:00    12
##  9 1503960366 2016-04-12 12:08:00    12
## 10 1503960366 2016-04-12 12:09:00    12
## # ... with 1,325,570 more rows

# Separating column for the date time in tables for heart rate and METs

heartrate_seconds_cln_v3 <- separate(heartrate_seconds_cln_v2, col = date_time, c("date","time"), sep = " ")
heartrate_seconds_cln_v3[[2]] <- as.Date(heartrate_seconds_cln_v3[[2]], "%Y-%m-%d")
tibble(mets_minute_cln_v3)

## # A tibble: 1,325,580 x 4
##            id date       time      mets
##         <dbl> <date>     <chr>    <int>
##  1 1503960366 2016-04-12 12:00:00    10
##  2 1503960366 2016-04-12 12:01:00    10
##  3 1503960366 2016-04-12 12:02:00    10
##  4 1503960366 2016-04-12 12:03:00    10
##  5 1503960366 2016-04-12 12:04:00    10
##  6 1503960366 2016-04-12 12:05:00    12
##  7 1503960366 2016-04-12 12:06:00    12
##  8 1503960366 2016-04-12 12:07:00    12
##  9 1503960366 2016-04-12 12:08:00    12
## 10 1503960366 2016-04-12 12:09:00    12
## # ... with 1,325,570 more rows

mets_minute_cln_v3 <- separate(mets_minute_cln_v2, col = date_time, c("date","time"), sep = " ")
mets_minute_cln_v3[[2]] <- as.Date(mets_minute_cln_v3[[2]], "%Y-%m-%d")
tibble(mets_minute_cln_v3)

## # A tibble: 1,325,580 x 4
##            id date       time      mets
##         <dbl> <date>     <chr>    <int>
##  1 1503960366 2016-04-12 12:00:00    10
##  2 1503960366 2016-04-12 12:01:00    10
##  3 1503960366 2016-04-12 12:02:00    10
##  4 1503960366 2016-04-12 12:03:00    10
##  5 1503960366 2016-04-12 12:04:00    10
##  6 1503960366 2016-04-12 12:05:00    12
##  7 1503960366 2016-04-12 12:06:00    12
##  8 1503960366 2016-04-12 12:07:00    12
##  9 1503960366 2016-04-12 12:08:00    12
## 10 1503960366 2016-04-12 12:09:00    12
## # ... with 1,325,570 more rows
…
activity_daily_cln_dt_3 <- activity_daily_cln_dt %>% 
  inner_join(activity_daily_cln_dt_2)

## Joining, by = c("id", "date")

activity_daily_cln_dt_3$weekday <- weekdays(activity_daily_cln_dt_2$date)

activity_daily_mets_cln_merge <- activity_daily_cln_dt_3 %>% 
  inner_join(mets_minute_cln_dt_2)

## Joining, by = c("id", "date")

tibble(activity_daily_mets_cln_merge)

## # A tibble: 934 x 20
##            id date       total_steps total_distance tracker_distance
##         <dbl> <date>           <int>          <dbl>            <dbl>
##  1 1503960366 2016-04-12       13162           8.5              8.5 
##  2 1503960366 2016-04-13       10735           6.97             6.97
##  3 1503960366 2016-04-14       10460           6.74             6.74
##  4 1503960366 2016-04-15        9762           6.28             6.28
##  5 1503960366 2016-04-16       12669           8.16             8.16
##  6 1503960366 2016-04-17        9705           6.48             6.48
##  7 1503960366 2016-04-18       13019           8.59             8.59
##  8 1503960366 2016-04-19       15506           9.88             9.88
##  9 1503960366 2016-04-20       10544           6.68             6.68
## 10 1503960366 2016-04-21        9819           6.34             6.34
## # ... with 924 more rows, and 15 more variables:
## #   logged_activities_distance <dbl>, very_active_distance <dbl>,
## #   moderately_active_distance <dbl>, light_active_distance <dbl>,
## #   sedentary_active_distance <dbl>, very_active_minutes <int>,
## #   fairly_active_minutes <int>, lightly_active_minutes <int>,
## #   sedentary_minutes <int>, calories <int>, total_active_minutes <int>,
## #   weekday <chr>, mean_mets <dbl>, max_mets <int>, min_mets <int>
…
# Descriptive statistics for sleep data 

tibble(sleep_daily_cln_v3)

## # A tibble: 410 x 5
##            id date       total_sleep_records total_minutes_asl~ total_time_in_b~
##         <dbl> <date>                   <int>              <int>            <int>
##  1 1503960366 2016-04-12                   1                327              346
##  2 1503960366 2016-04-13                   2                384              407
##  3 1503960366 2016-04-15                   1                412              442
##  4 1503960366 2016-04-16                   2                340              367
##  5 1503960366 2016-04-17                   1                700              712
##  6 1503960366 2016-04-19                   1                304              320
##  7 1503960366 2016-04-20                   1                360              377
##  8 1503960366 2016-04-21                   1                325              364
##  9 1503960366 2016-04-23                   1                361              384
## 10 1503960366 2016-04-24                   1                430              449
## # ... with 400 more rows
…
sleep_daily_cln_dt_2 <- sleep_daily_cln_dt[,list(mean_minutes_asleep = mean(total_minutes_asleep), mean_minutes_in_bed = mean(total_time_in_bed)), by = c("id")]

sleep_daily_cln_dt_3 <- sleep_daily_cln_dt_2[,list(mean_minutes_not_sleeping = mean_minutes_in_bed - mean_minutes_asleep, mean_hour_asleep = mean_minutes_asleep / 60, mean_hour_in_bed = mean_minutes_in_bed / 60), by = c("id")]

sleep_daily_cln_dt_4 <- sleep_daily_cln_dt_2 %>% 
  inner_join(sleep_daily_cln_dt_3)

## Joining, by = "id"

# ID 1844505072 is suspicious as they spent 16 hour sleeping, which is unusual. As for ID 2320127002 spending 1 hour asleep also seems unusual. These two anomalies can be due to the users device being incorrectly configured. 

tibble(sleep_daily_cln_dt_4)

## # A tibble: 24 x 6
##         id mean_minutes_asl~ mean_minutes_in~ mean_minutes_not~ mean_hour_asleep
##      <dbl>             <dbl>            <dbl>             <dbl>            <dbl>
##  1  1.50e9              360.             383.              22.9             6.00
##  2  1.64e9              294              346               52               4.9 
##  3  1.84e9              652              961              309              10.9 
##  4  1.93e9              417              438.              20.8             6.95
##  5  2.03e9              506.             538.              31.5             8.44
##  6  2.32e9               61               69                8               1.02
##  7  2.35e9              447.             491.              44.5             7.45
##  8  3.98e9              294.             461.             168.              4.89
##  9  4.02e9              349.             380.              30.4             5.82
## 10  4.32e9              477.             502.              25.3             7.94
## # ... with 14 more rows, and 1 more variable: mean_hour_in_bed <dbl>
…
